chp-tidyverse-basics.knit
…
That allowed us to calculate the total number of individuals from
samples at each site, but what if we want the total calculated for each
taxon in each sample?

The function group_by() allows us to group by multiple
variables. Let’s group by siteID and
sampleID.

inverts_bysample <- inverts %>%
    group_by(siteID, sampleID) %>%
    summarize(total = sum(estimatedTotalCount))

inverts_bysample

# A tibble: 48 x 3
# Groups:   siteID [3]
   siteID sampleID                total
   <chr>  <chr>                   <dbl>
 1 CARI   CARI.20210701.KICKNET.1   184
 2 CARI   CARI.20210701.KICKNET.2     2
 3 CARI   CARI.20210701.KICKNET.3   229
 4 CARI   CARI.20210701.KICKNET.4   313
 5 CARI   CARI.20210701.KICKNET.5   455
 6 CARI   CARI.20210701.SURBER.1    982
 7 CARI   CARI.20210701.SURBER.2    399
 8 CARI   CARI.20210701.SURBER.3    355
 9 CARI   CARI.20210826.KICKNET.1    50
10 CARI   CARI.20210826.KICKNET.2    44
# i 38 more rows
…
Suppose we want to compare which taxa are found at each of the three
sites across all samples collected at each. Let’s summarize the total
number of individuals counted from each taxon at each site.

# Calculate the total number of individuals sampled 
# from each taxon at each site
inverts_bytaxa_bysite <- inverts %>%
    group_by(siteID, scientificName) %>%
    summarize(total = sum(estimatedTotalCount))

# view the data frame
inverts_bytaxa_bysite

# A tibble: 434 x 3
# Groups:   siteID [3]
   siteID scientificName     total
   <chr>  <chr>              <dbl>
 1 CARI   Aeolosoma sp.          4
 2 CARI   Allocladius sp.        1
 3 CARI   Ameletus sp.          16
 4 CARI   Baetidae sp.           9
 5 CARI   Baetis foemina       644
 6 CARI   Baetis rhodani gr.    15
 7 CARI   Baetis sp.             2
 8 CARI   Boreochlus sp.         1
 9 CARI   Brillia sp.            7
10 CARI   Capniidae sp.         96
# i 424 more rows
…
values_from = which column contains the
values that we want to show up in these columns

Here’s how this works in our example:

# Create a site x taxon table that gives
# abundance of each taxon at each site
siteBytaxa_abun <- inverts_bytaxa_bysite %>% 
  pivot_wider(names_from = siteID,
              values_from = total)

# View the data frame
siteBytaxa_abun

# A tibble: 265 x 4
   scientificName      CARI  MART  TECR
   <chr>              <dbl> <dbl> <dbl>
 1 Aeolosoma sp.          4    NA    37
 2 Allocladius sp.        1    NA    NA
 3 Ameletus sp.          16   125    60
 4 Baetidae sp.           9     3   605
 5 Baetis foemina       644    NA    NA
 6 Baetis rhodani gr.    15    NA    NA
 7 Baetis sp.             2    47   509
 8 Boreochlus sp.         1    NA    16
 9 Brillia sp.            7    52   177
10 Capniidae sp.         96   149    NA
# i 255 more rows
…
# Create a site x taxon table that gives
# abundance of each taxon at each site
siteBytaxa_abun <- inverts_bytaxa_bysite %>% 
  pivot_wider(names_from = siteID,
              values_from = total,
              values_fill = 0)

# View the dataframe
siteBytaxa_abun

# A tibble: 265 x 4
   scientificName      CARI  MART  TECR
   <chr>              <dbl> <dbl> <dbl>
 1 Aeolosoma sp.          4     0    37
 2 Allocladius sp.        1     0     0
 3 Ameletus sp.          16   125    60
 4 Baetidae sp.           9     3   605
 5 Baetis foemina       644     0     0
 6 Baetis rhodani gr.    15     0     0
 7 Baetis sp.             2    47   509
 8 Boreochlus sp.         1     0    16
 9 Brillia sp.            7    52   177
10 Capniidae sp.         96   149     0
# i 255 more rows
…
8.6 Use the TSW_30min data to calculate
average, minimum and maximum weekly surface water temperature at each
site.

The week() function can extract the week of the year
from a date-time object.

Your solution should use pipes to compose functions and result in
exactly this table:

# A tibble: 72 x 5
# Groups:   siteID [3]
   siteID  week temp_avg_C temp_min_C temp_max_C
   <chr>  <dbl>      <dbl>      <dbl>      <dbl>
 1 CARI      22       3.67       1.34       5.99
 2 CARI      23       3.84       0.75     163.  
 3 CARI      24       6.06       1.58      19.3 
 4 CARI      25       6.24       1.72      18.1 
 5 CARI      26       5.55       2.84      17.0 
 6 CARI      27       5.66       3.53       8.91
 7 CARI      28       5.49       2.8        8.45
 8 CARI      29       6.33       3.51       9.18
 9 CARI      30       5.93       3.85       9.18
10 CARI      31       6.07       3.74       9.06
# i 62 more rows
…
8.8

Use inv_taxa to make a table that compares the total
abundance of different macroinvertebrate phyla in each size class from
each sample across all sites.

Your results should look like this:

# A tibble: 537 x 5
# Groups:   siteID, sampleID, phylum [144]
   siteID sampleID                phylum     sizeClass total
   <chr>  <chr>                   <chr>          <dbl> <dbl>
 1 CARI   CARI.20210701.KICKNET.1 Annelida           3     3
 2 CARI   CARI.20210701.KICKNET.1 Annelida           5     3
 3 CARI   CARI.20210701.KICKNET.1 Annelida           6     1
 4 CARI   CARI.20210701.KICKNET.1 Arthropoda         1    15
 5 CARI   CARI.20210701.KICKNET.1 Arthropoda         2    54
 6 CARI   CARI.20210701.KICKNET.1 Arthropoda         3    66
 7 CARI   CARI.20210701.KICKNET.1 Arthropoda         4    17
 8 CARI   CARI.20210701.KICKNET.1 Arthropoda         5     7
 9 CARI   CARI.20210701.KICKNET.1 Arthropoda         6     8
10 CARI   CARI.20210701.KICKNET.1 Arthropoda         7     5
# i 527 more rows

8.9

Join the table you created in exercise 8.8 with the
benthicArea column from inv_fieldData. Then
calculate the density (= total / benthicArea) of each
phylum in each size class for each sample.

Your results should look like this:

# A tibble: 537 x 7
# Groups:   siteID, sampleID, phylum [144]
   siteID sampleID             phylum sizeClass total benthicArea density_per_m2
   <chr>  <chr>                <chr>      <dbl> <dbl>       <dbl>          <dbl>
 1 CARI   CARI.20210701.KICKN~ Annel~         3     3        0.25             12
 2 CARI   CARI.20210701.KICKN~ Annel~         5     3        0.25             12
 3 CARI   CARI.20210701.KICKN~ Annel~         6     1        0.25              4
 4 CARI   CARI.20210701.KICKN~ Arthr~         1    15        0.25             60
 5 CARI   CARI.20210701.KICKN~ Arthr~         2    54        0.25            216
 6 CARI   CARI.20210701.KICKN~ Arthr~         3    66        0.25            264
 7 CARI   CARI.20210701.KICKN~ Arthr~         4    17        0.25             68
 8 CARI   CARI.20210701.KICKN~ Arthr~         5     7        0.25             28
 9 CARI   CARI.20210701.KICKN~ Arthr~         6     8        0.25             32
10 CARI   CARI.20210701.KICKN~ Arthr~         7     5        0.25             20
# i 527 more rows
…
